<?xml version="1.0" encoding="UTF-8" standalone="no"?>
<!-- Created with Inkscape (http://www.inkscape.org/) -->

<svg
   width="210mm"
   height="297mm"
   viewBox="0 0 210 297"
   version="1.1"
   id="svg5"
   inkscape:version="1.2.2 (b0a8486541, 2022-12-01)"
   sodipodi:docname="exemple_schema_famille_transposon.svg"
   xmlns:inkscape="http://www.inkscape.org/namespaces/inkscape"
   xmlns:sodipodi="http://sodipodi.sourceforge.net/DTD/sodipodi-0.dtd"
   xmlns="http://www.w3.org/2000/svg"
   xmlns:svg="http://www.w3.org/2000/svg">
  <sodipodi:namedview
     id="namedview7"
     pagecolor="#ffffff"
     bordercolor="#000000"
     borderopacity="0.25"
     inkscape:showpageshadow="2"
     inkscape:pageopacity="0.0"
     inkscape:pagecheckerboard="0"
     inkscape:deskcolor="#d1d1d1"
     inkscape:document-units="mm"
     showgrid="true"
     inkscape:zoom="1.3843895"
     inkscape:cx="365.1429"
     inkscape:cy="332.27642"
     inkscape:window-width="1920"
     inkscape:window-height="1011"
     inkscape:window-x="0"
     inkscape:window-y="0"
     inkscape:window-maximized="1"
     inkscape:current-layer="layer1">
    <inkscape:grid
       type="xygrid"
       id="grid256" />
  </sodipodi:namedview>
  <defs
     id="defs2" />
  <g
     inkscape:label="Layer 1"
     inkscape:groupmode="layer"
     id="layer1">
    <path
       style="fill:#000000;stroke:#000000;stroke-width:0.499999;stroke-linecap:square"
       d="m 10.583333,39.6875 121.708337,0"
       id="path258"
       sodipodi:nodetypes="cc" />
    <text
       xml:space="preserve"
       style="font-size:3.175px;font-family:'Latin Modern Roman';-inkscape-font-specification:'Latin Modern Roman, Normal';fill:#000000;stroke:none;stroke-width:0.499999;stroke-linecap:square"
       x="9.260417"
       y="33.072918"
       id="text314"><tspan
         sodipodi:role="line"
         id="tspan312"
         style="stroke-width:0.5;fill:#000000;stroke:none"
         x="9.260417"
         y="33.072918">1</tspan></text>
    <text
       xml:space="preserve"
       style="font-size:3.175px;font-family:'Latin Modern Roman';-inkscape-font-specification:'Latin Modern Roman, Normal';fill:#000000;stroke:none;stroke-width:0.499999;stroke-linecap:square"
       x="129.36325"
       y="36.971817"
       id="text318"><tspan
         sodipodi:role="line"
         id="tspan316"
         style="stroke-width:0.5"
         x="129.36325"
         y="36.971817">1000</tspan></text>
    <text
       xml:space="preserve"
       style="font-size:3.175px;font-family:'Latin Modern Roman';-inkscape-font-specification:'Latin Modern Roman, Normal';fill:#000000;stroke:none;stroke-width:0.499999;stroke-linecap:square"
       x="66.145836"
       y="18.520834"
       id="text332"><tspan
         sodipodi:role="line"
         id="tspan330"
         style="stroke-width:0.5"
         x="66.145836"
         y="18.520834">&quot;famille truc&quot;</tspan></text>
    <path
       style="fill:#000000;stroke:#000000;stroke-width:0.499999;stroke-linecap:square"
       d="m 10.583333,60.854166 100.541667,10e-7"
       id="path346"
       sodipodi:nodetypes="cc" />
    <text
       xml:space="preserve"
       style="font-size:3.175px;font-family:'Latin Modern Roman';-inkscape-font-specification:'Latin Modern Roman, Normal';fill:#000000;stroke:none;stroke-width:0.499999;stroke-linecap:square"
       x="10.583333"
       y="58.208332"
       id="text350"><tspan
         sodipodi:role="line"
         id="tspan348"
         style="stroke-width:0.5;fill:#000000;stroke:none"
         x="10.583333"
         y="58.208332">1</tspan></text>
    <text
       xml:space="preserve"
       style="font-size:3.175px;font-family:'Latin Modern Roman';-inkscape-font-specification:'Latin Modern Roman, Normal';fill:#000000;stroke:none;stroke-width:0.499999;stroke-linecap:square"
       x="116.28332"
       y="60.784317"
       id="text404"><tspan
         sodipodi:role="line"
         id="tspan402"
         style="stroke-width:0.5"
         x="116.28332"
         y="60.784317">850</tspan></text>
    <path
       style="fill:#000000;stroke:#ff0000;stroke-width:0.499999;stroke-linecap:square"
       d="M 18.520833,39.6875 31.75,60.854166"
       id="path406" />
    <path
       style="fill:#000000;stroke:#ff0000;stroke-width:0.499999;stroke-linecap:square"
       d="M 44.979166,39.6875 58.208333,60.854166"
       id="path462" />
    <path
       style="fill:#000000;stroke:#ff0000;stroke-width:0.499999;stroke-linecap:square"
       d="M 97.895832,39.6875 76.729166,60.854166"
       id="path464" />
    <path
       style="fill:#000000;stroke:#ff0000;stroke-width:0.499999;stroke-linecap:square"
       d="M 119.0625,39.6875 97.895832,60.854166"
       id="path466" />
    <text
       xml:space="preserve"
       style="font-size:3.175px;font-family:'Latin Modern Roman';-inkscape-font-specification:'Latin Modern Roman, Normal';fill:#000000;stroke:none;stroke-width:0.499999;stroke-linecap:square"
       x="95.116653"
       y="36.971817"
       id="text593"><tspan
         sodipodi:role="line"
         id="tspan591"
         style="fill:#000000;stroke:none;stroke-width:0.5"
         x="95.116653"
         y="36.971817">630</tspan></text>
    <text
       xml:space="preserve"
       style="font-size:3.175px;font-family:'Latin Modern Roman';-inkscape-font-specification:'Latin Modern Roman, Normal';fill:#000000;stroke:none;stroke-width:0.499999;stroke-linecap:square"
       x="119.0625"
       y="34.395832"
       id="text597"><tspan
         sodipodi:role="line"
         id="tspan595"
         style="stroke-width:0.5"
         x="119.0625"
         y="34.395832" /></text>
    <text
       xml:space="preserve"
       style="font-size:3.175px;font-family:'Latin Modern Roman';-inkscape-font-specification:'Latin Modern Roman, Normal';fill:#000000;stroke:none;stroke-width:0.499999;stroke-linecap:square"
       x="116.41666"
       y="37.041668"
       id="text756"><tspan
         sodipodi:role="line"
         id="tspan754"
         style="stroke-width:0.5"
         x="116.41666"
         y="37.041668">992</tspan></text>
    <text
       xml:space="preserve"
       style="font-size:3.175px;font-family:'Latin Modern Roman';-inkscape-font-specification:'Latin Modern Roman, Normal';fill:#000000;stroke:none;stroke-width:0.499999;stroke-linecap:square"
       x="31.648399"
       y="87.134697"
       id="text787"><tspan
         sodipodi:role="line"
         id="tspan785"
         style="stroke-width:0.5"
         x="31.648399"
         y="87.134697">hit1:</tspan><tspan
         sodipodi:role="line"
         style="stroke-width:0.5"
         x="31.648399"
         y="91.103447"
         id="tspan789">score = 360</tspan><tspan
         sodipodi:role="line"
         style="stroke-width:0.5"
         x="31.648399"
         y="95.072197"
         id="tspan793">% identité = 90%</tspan></text>
    <text
       xml:space="preserve"
       style="font-size:3.175px;font-family:'Latin Modern Roman';-inkscape-font-specification:'Latin Modern Roman, Normal';fill:#000000;stroke:none;stroke-width:0.499999;stroke-linecap:square"
       x="76.729164"
       y="87.3125"
       id="text799"><tspan
         sodipodi:role="line"
         id="tspan797"
         style="stroke-width:0.5"
         x="76.729164"
         y="87.3125">hit2:</tspan><tspan
         sodipodi:role="line"
         style="stroke-width:0.5"
         x="76.729164"
         y="91.28125"
         id="tspan801">score = 287</tspan><tspan
         sodipodi:role="line"
         style="stroke-width:0.5"
         x="76.729164"
         y="95.25"
         id="tspan803">% identité = 86%</tspan></text>
    <text
       xml:space="preserve"
       style="font-size:3.175px;font-family:'Latin Modern Roman';-inkscape-font-specification:'Latin Modern Roman, Normal';fill:#000000;stroke:none;stroke-width:0.499999;stroke-linecap:square"
       x="55.5625"
       y="121.70833"
       id="text912"><tspan
         sodipodi:role="line"
         id="tspan910"
         style="stroke-width:0.5"
         x="55.5625"
         y="121.70833">évènement de délétion au sein de la copie.</tspan><tspan
         sodipodi:role="line"
         style="stroke-width:0.5"
         x="55.5625"
         y="125.67708"
         id="tspan914" /></text>
    <text
       xml:space="preserve"
       style="font-size:3.175px;font-family:'Latin Modern Roman';-inkscape-font-specification:'Latin Modern Roman, Normal';fill:#000000;stroke:none;stroke-width:0.499999;stroke-linecap:square"
       x="148.16667"
       y="39.6875"
       id="text956"><tspan
         sodipodi:role="line"
         id="tspan954"
         style="stroke-width:0.5"
         x="148.16667"
         y="39.6875">séquence de référence</tspan></text>
    <text
       xml:space="preserve"
       style="font-size:3.175px;font-family:'Latin Modern Roman';-inkscape-font-specification:'Latin Modern Roman, Normal';fill:#000000;stroke:none;stroke-width:0.499999;stroke-linecap:square"
       x="145.52083"
       y="60.854164"
       id="text960"><tspan
         sodipodi:role="line"
         id="tspan958"
         style="stroke-width:0.5"
         x="145.52083"
         y="60.854164">copie</tspan></text>
  </g>
</svg>
